{
  "content": [
    {
      "offenderId": 2500195236,
      "firstName": "Rhfmmhvkj",
      "surname": "Smith",
      "dateOfBirth": "1993-12-21",
      "gender": "Male",
      "otherIds": {
        "crn": "X181804"
      },
      "contactDetails": {},
      "offenderProfile": {
        "offenderLanguages": {},
        "previousConviction": {}
      },
      "offenderManagers": [
        {
          "trustOfficer": {
            "forenames": "Unallocated Staff(N03)",
            "surname": "Staff"
          },
          "staff": {
            "forenames": "Unallocated Staff(N03)",
            "surname": "Staff"
          },
          "partitionArea": "National Data",
          "softDeleted": false,
          "team": {
            "description": "Unallocated Team(N03)",
            "district": {
              "code": "N03NPSA",
              "description": "N03 Division"
            },
            "borough": {
              "code": "N03100",
              "description": "N03 Cluster 1"
            }
          },
          "probationArea": {
            "code": "N03",
            "description": "NPS Wales",
            "nps": true
          },
          "fromDate": "1900-01-01",
          "active": true,
          "allocationReason": {
            "code": "IN1",
            "description": "Initial Allocation"
          }
        }
      ],
      "softDeleted": false,
      "currentDisposal": "0",
      "partitionArea": "National Data",
      "currentRestriction": false,
      "restrictionMessage": "This is a restricted offender record. Please contact a system administrator",
      "currentExclusion": false,
      "exclusionMessage": "You are excluded from viewing this offender record. Please contact a system administrator",
      "highlight": {
        "surname": [
          "Smith"
        ]
      },
      "age": 26
    },
    {
      "offenderId": 2500109986,
      "title": "Mr",
      "firstName": "harry",
      "surname": "smith",
      "dateOfBirth": "1990-09-15",
      "gender": "Male",
      "otherIds": {
        "crn": "X098092"
      },
      "contactDetails": {},
      "offenderProfile": {
        "offenderLanguages": {},
        "previousConviction": {}
      },
      "offenderAliases": [
        {
          "dateOfBirth": "1990-09-15",
          "firstName": "Mr",
          "surname": "Dave",
          "gender": "Male"
        }
      ],
      "offenderManagers": [
        {
          "trustOfficer": {
            "forenames": "Sophie Zz",
            "surname": "Pheim"
          },
          "staff": {
            "forenames": "Sophie Zz",
            "surname": "Pheim"
          },
          "partitionArea": "National Data",
          "softDeleted": false,
          "team": {
            "description": "OMU A",
            "district": {
              "code": "N04NPSA",
              "description": "N04 Division"
            },
            "borough": {
              "code": "N04100",
              "description": "N04 Cluster 1"
            }
          },
          "probationArea": {
            "code": "N04",
            "description": "NPS Midlands",
            "nps": true
          },
          "fromDate": "2017-09-18",
          "active": true,
          "allocationReason": {
            "code": "OM",
            "description": "Offender Moved"
          }
        }
      ],
      "softDeleted": false,
      "currentDisposal": "1",
      "partitionArea": "National Data",
      "currentRestriction": false,
      "restrictionMessage": "This is a restricted offender record. Please contact a system administrator",
      "currentExclusion": false,
      "exclusionMessage": "You are excluded from viewing this offender record. Please contact a system administrator",
      "highlight": {
        "surname": [
          "smith"
        ]
      },
      "age": 29
    },
    {
      "offenderId": 2500313222,
      "firstName": "Kyle",
      "surname": "Smith",
      "dateOfBirth": "1973-11-25",
      "gender": "Male",
      "otherIds": {
        "crn": "X296978"
      },
      "contactDetails": {},
      "offenderProfile": {
        "offenderLanguages": {},
        "previousConviction": {}
      },
      "offenderManagers": [
        {
          "trustOfficer": {
            "forenames": "Unallocated Staff(N03)",
            "surname": "Staff"
          },
          "staff": {
            "forenames": "Unallocated Staff(N03)",
            "surname": "Staff"
          },
          "partitionArea": "National Data",
          "softDeleted": false,
          "team": {
            "description": "Unallocated Team(N03)",
            "district": {
              "code": "N03NPSA",
              "description": "N03 Division"
            },
            "borough": {
              "code": "N03100",
              "description": "N03 Cluster 1"
            }
          },
          "probationArea": {
            "code": "N03",
            "description": "NPS Wales",
            "nps": true
          },
          "fromDate": "1900-01-01",
          "active": true,
          "allocationReason": {
            "code": "IN1",
            "description": "Initial Allocation"
          }
        }
      ],
      "softDeleted": false,
      "currentDisposal": "0",
      "partitionArea": "National Data",
      "currentRestriction": false,
      "restrictionMessage": "This is a restricted offender record. Please contact a system administrator",
      "currentExclusion": false,
      "exclusionMessage": "You are excluded from viewing this offender record. Please contact a system administrator",
      "highlight": {
        "surname": [
          "Smith"
        ]
      },
      "age": 46
    },
    {
      "offenderId": 2500196468,
      "firstName": "uygdew",
      "surname": "Smith",
      "dateOfBirth": "1993-12-21",
      "gender": "Male",
      "otherIds": {
        "crn": "X183036"
      },
      "contactDetails": {},
      "offenderProfile": {
        "offenderLanguages": {},
        "previousConviction": {}
      },
      "offenderManagers": [
        {
          "trustOfficer": {
            "forenames": "Unallocated Staff(N03)",
            "surname": "Staff"
          },
          "staff": {
            "forenames": "Unallocated Staff(N03)",
            "surname": "Staff"
          },
          "partitionArea": "National Data",
          "softDeleted": false,
          "team": {
            "description": "Unallocated Team(N03)",
            "district": {
              "code": "N03NPSA",
              "description": "N03 Division"
            },
            "borough": {
              "code": "N03100",
              "description": "N03 Cluster 1"
            }
          },
          "probationArea": {
            "code": "N03",
            "description": "NPS Wales",
            "nps": true
          },
          "fromDate": "1900-01-01",
          "active": true,
          "allocationReason": {
            "code": "IN1",
            "description": "Initial Allocation"
          }
        }
      ],
      "softDeleted": false,
      "currentDisposal": "0",
      "partitionArea": "National Data",
      "currentRestriction": false,
      "restrictionMessage": "This is a restricted offender record. Please contact a system administrator",
      "currentExclusion": false,
      "exclusionMessage": "You are excluded from viewing this offender record. Please contact a system administrator",
      "highlight": {
        "surname": [
          "Smith"
        ]
      },
      "age": 26
    },
    {
      "offenderId": 2500195234,
      "firstName": "Rhfhjf",
      "surname": "Smith",
      "dateOfBirth": "1993-12-21",
      "gender": "Male",
      "otherIds": {
        "crn": "X181802"
      },
      "contactDetails": {},
      "offenderProfile": {
        "offenderLanguages": {},
        "previousConviction": {}
      },
      "offenderManagers": [
        {
          "trustOfficer": {
            "forenames": "Unallocated Staff(N03)",
            "surname": "Staff"
          },
          "staff": {
            "forenames": "Unallocated Staff(N03)",
            "surname": "Staff"
          },
          "partitionArea": "National Data",
          "softDeleted": false,
          "team": {
            "description": "Unallocated Team(N03)",
            "district": {
              "code": "N03NPSA",
              "description": "N03 Division"
            },
            "borough": {
              "code": "N03100",
              "description": "N03 Cluster 1"
            }
          },
          "probationArea": {
            "code": "N03",
            "description": "NPS Wales",
            "nps": true
          },
          "fromDate": "1900-01-01",
          "active": true,
          "allocationReason": {
            "code": "IN1",
            "description": "Initial Allocation"
          }
        }
      ],
      "softDeleted": false,
      "currentDisposal": "0",
      "partitionArea": "National Data",
      "currentRestriction": false,
      "restrictionMessage": "This is a restricted offender record. Please contact a system administrator",
      "currentExclusion": false,
      "exclusionMessage": "You are excluded from viewing this offender record. Please contact a system administrator",
      "highlight": {
        "surname": [
          "Smith"
        ]
      },
      "age": 26
    },
    {
      "offenderId": 2500195216,
      "firstName": "RyhjgguVHVHJVHJan",
      "surname": "Smith",
      "dateOfBirth": "1993-12-21",
      "gender": "Male",
      "otherIds": {
        "crn": "X181784"
      },
      "contactDetails": {},
      "offenderProfile": {
        "offenderLanguages": {},
        "previousConviction": {}
      },
      "offenderManagers": [
        {
          "trustOfficer": {
            "forenames": "Unallocated Staff(N03)",
            "surname": "Staff"
          },
          "staff": {
            "forenames": "Unallocated Staff(N03)",
            "surname": "Staff"
          },
          "partitionArea": "National Data",
          "softDeleted": false,
          "team": {
            "description": "Unallocated Team(N03)",
            "district": {
              "code": "N03NPSA",
              "description": "N03 Division"
            },
            "borough": {
              "code": "N03100",
              "description": "N03 Cluster 1"
            }
          },
          "probationArea": {
            "code": "N03",
            "description": "NPS Wales",
            "nps": true
          },
          "fromDate": "1900-01-01",
          "active": true,
          "allocationReason": {
            "code": "IN1",
            "description": "Initial Allocation"
          }
        }
      ],
      "softDeleted": false,
      "currentDisposal": "0",
      "partitionArea": "National Data",
      "currentRestriction": false,
      "restrictionMessage": "This is a restricted offender record. Please contact a system administrator",
      "currentExclusion": false,
      "exclusionMessage": "You are excluded from viewing this offender record. Please contact a system administrator",
      "highlight": {
        "surname": [
          "Smith"
        ]
      },
      "age": 26
    },
    {
      "offenderId": 2500195197,
      "firstName": "overherememe",
      "surname": "Smith",
      "dateOfBirth": "1993-12-21",
      "gender": "Male",
      "otherIds": {
        "crn": "X181765"
      },
      "contactDetails": {},
      "offenderProfile": {
        "offenderLanguages": {},
        "previousConviction": {}
      },
      "offenderManagers": [
        {
          "trustOfficer": {
            "forenames": "Unallocated",
            "surname": "Staff"
          },
          "staff": {
            "forenames": "Unallocated",
            "surname": "Staff"
          },
          "partitionArea": "National Data",
          "softDeleted": false,
          "team": {
            "description": "BRADFORD\\BULLS SP",
            "district": {
              "code": "N02BRA",
              "description": "Bradford LDU"
            },
            "borough": {
              "code": "N02BAC",
              "description": "Bradford, Calderdale"
            }
          },
          "probationArea": {
            "code": "N02",
            "description": "NPS North East",
            "nps": true
          },
          "fromDate": "2020-04-17",
          "active": true,
          "allocationReason": {
            "code": "OM",
            "description": "Offender Moved"
          }
        }
      ],
      "softDeleted": false,
      "currentDisposal": "0",
      "partitionArea": "National Data",
      "currentRestriction": false,
      "restrictionMessage": "This is a restricted offender record. Please contact a system administrator",
      "currentExclusion": false,
      "exclusionMessage": "You are excluded from viewing this offender record. Please contact a system administrator",
      "highlight": {
        "surname": [
          "Smith"
        ]
      },
      "age": 26
    },
    {
      "offenderId": 2500095973,
      "firstName": "Joe",
      "surname": "Smith",
      "dateOfBirth": "1960-01-01",
      "gender": "Male",
      "otherIds": {
        "crn": "X084078"
      },
      "contactDetails": {},
      "offenderProfile": {
        "offenderLanguages": {},
        "remandStatus": "Bail - Unconditional",
        "previousConviction": {},
        "riskColour": "Red"
      },
      "offenderManagers": [
        {
          "trustOfficer": {
            "forenames": "Staff",
            "surname": "Unallocated"
          },
          "staff": {
            "forenames": "Staff",
            "surname": "Unallocated"
          },
          "partitionArea": "National Data",
          "softDeleted": false,
          "team": {
            "description": "NPS - Claypath",
            "telephone": "0191 386 1265",
            "district": {
              "code": "DTV_NOR",
              "description": "North Durham LDU"
            },
            "borough": {
              "code": "DTV427",
              "description": "LDU Cluster Durham"
            }
          },
          "probationArea": {
            "code": "N02",
            "description": "NPS North East",
            "nps": true
          },
          "fromDate": "2018-03-27",
          "active": true,
          "allocationReason": {
            "code": "ANPS",
            "description": "Case Allocated to NPS"
          }
        }
      ],
      "softDeleted": false,
      "currentDisposal": "1",
      "partitionArea": "National Data",
      "currentRestriction": false,
      "restrictionMessage": "This is a restricted offender record. Please contact a system administrator",
      "currentExclusion": false,
      "exclusionMessage": "You are excluded from viewing this offender record. Please contact a system administrator",
      "highlight": {
        "surname": [
          "Smith"
        ]
      },
      "age": 60
    },
    {
      "offenderId": 2500313220,
      "firstName": "Ryan",
      "surname": "Smith",
      "dateOfBirth": "1923-11-25",
      "gender": "Male",
      "otherIds": {
        "crn": "X296976"
      },
      "contactDetails": {},
      "offenderProfile": {
        "offenderLanguages": {},
        "previousConviction": {}
      },
      "offenderManagers": [
        {
          "trustOfficer": {
            "forenames": "Unallocated Staff(N03)",
            "surname": "Staff"
          },
          "staff": {
            "forenames": "Unallocated Staff(N03)",
            "surname": "Staff"
          },
          "partitionArea": "National Data",
          "softDeleted": false,
          "team": {
            "description": "Unallocated Team(N03)",
            "district": {
              "code": "N03NPSA",
              "description": "N03 Division"
            },
            "borough": {
              "code": "N03100",
              "description": "N03 Cluster 1"
            }
          },
          "probationArea": {
            "code": "N03",
            "description": "NPS Wales",
            "nps": true
          },
          "fromDate": "1900-01-01",
          "active": true,
          "allocationReason": {
            "code": "IN1",
            "description": "Initial Allocation"
          }
        }
      ],
      "softDeleted": false,
      "currentDisposal": "0",
      "partitionArea": "National Data",
      "currentRestriction": false,
      "restrictionMessage": "This is a restricted offender record. Please contact a system administrator",
      "currentExclusion": false,
      "exclusionMessage": "You are excluded from viewing this offender record. Please contact a system administrator",
      "highlight": {
        "surname": [
          "Smith"
        ]
      },
      "age": 96
    },
    {
      "offenderId": 2500196465,
      "firstName": "uygew",
      "surname": "Smith",
      "dateOfBirth": "1993-12-21",
      "gender": "Male",
      "otherIds": {
        "crn": "X183033"
      },
      "contactDetails": {},
      "offenderProfile": {
        "offenderLanguages": {},
        "previousConviction": {}
      },
      "offenderManagers": [
        {
          "trustOfficer": {
            "forenames": "Unallocated Staff(N03)",
            "surname": "Staff"
          },
          "staff": {
            "forenames": "Unallocated Staff(N03)",
            "surname": "Staff"
          },
          "partitionArea": "National Data",
          "softDeleted": false,
          "team": {
            "description": "Unallocated Team(N03)",
            "district": {
              "code": "N03NPSA",
              "description": "N03 Division"
            },
            "borough": {
              "code": "N03100",
              "description": "N03 Cluster 1"
            }
          },
          "probationArea": {
            "code": "N03",
            "description": "NPS Wales",
            "nps": true
          },
          "fromDate": "1900-01-01",
          "active": true,
          "allocationReason": {
            "code": "IN1",
            "description": "Initial Allocation"
          }
        }
      ],
      "softDeleted": false,
      "currentDisposal": "0",
      "partitionArea": "National Data",
      "currentRestriction": false,
      "restrictionMessage": "This is a restricted offender record. Please contact a system administrator",
      "currentExclusion": false,
      "exclusionMessage": "You are excluded from viewing this offender record. Please contact a system administrator",
      "highlight": {
        "surname": [
          "Smith"
        ]
      },
      "age": 26
    }
  ],
  "pageable": {
    "sort": {
      "sorted": false,
      "unsorted": true,
      "empty": true
    },
    "offset": 0,
    "pageNumber": 0,
    "pageSize": 10,
    "paged": true,
    "unpaged": false
  },
  "probationAreaAggregations": [
    {
      "code": "N03",
      "count": 21
    },
    {
      "code": "N07",
      "count": 5
    },
    {
      "code": "N02",
      "count": 4
    },
    {
      "code": "N40",
      "count": 4
    },
    {
      "code": "C01",
      "count": 2
    },
    {
      "code": "C03",
      "count": 1
    },
    {
      "code": "N05",
      "count": 1
    }
  ],
  "suggestions": {
    "suggest": {
      "firstName": [
        {
          "text": "smith",
          "offset": 0,
          "length": 5,
          "options": [
            {
              "text": "smash",
              "score": 0.6,
              "freq": 1
            },
            {
              "text": "seth",
              "score": 0.5,
              "freq": 1
            }
          ]
        }
      ],
      "surname": [
        {
          "text": "smith",
          "offset": 0,
          "length": 5,
          "options": []
        }
      ]
    }
  },
  "totalElements": 37,
  "last": false,
  "totalPages": 4,
  "sort": {
    "sorted": false,
    "unsorted": true,
    "empty": true
  },
  "number": 0,
  "size": 10,
  "numberOfElements": 10,
  "first": true,
  "empty": false
}